21

10
-1
1
-1
6
5
9

1
3
5
7
-3
-3
5
9
1
5

1
3
6
-3
9
7

5
-1
3
3
5
5
-1
7

2
7
2
6
8
-5
5
2

9
3
2

9
3
3

8
1
5
3

7
-1
2
8

3
4
-2
7
9
1
9
3
10

1
10
6
3
6
1
1
-6
-4
1
6

9
10
-1
9
2
7
3

10
8
7
9

9
9
5
6
1
-1
-2
1
2
9

10
-1
4
9
-2
9
5
1
10
9

1
6
4
1
7
5
1
-1
1
9

1
-1
7
7
8
-1
5
1
-2
3

1
8
3
5

7
-1
8
-1
4
7

4
8
9
-1
10
4
-2
7

6
4
-1
3
6
-3
8
