23

4
3
2
4
-2
-3

5
3
3
4
3
1
-2
-1
-1
3
3
-3

5
2
3
1
-1
-2
3
2
1
-1

5
3
3
9
7
-1
-2
1
2
-2
-1
2
3
-1
-2

3
2
-2
2
5
5
-3

2
4
4
-2
-1
2
3
4
5
-1
-2
-1
3
2

5
-1
3
-1
4
-1
4

4
4
4
4
-2
-1
2

3
-1
3
2
1
-2
-1

2
2
1
-3
2
1
4
3

1
2
3
4
-2
1
-1

4
2
-2
1
2
-1
2

6
6
6
-3
-2
1

4
8
8
-2
-1

2
2
3
4
-2

4
3
4
-1
3
4

6
7
4
-2
-1

4
2
4
4
-1
-2
-1

2
3
5
-2
-1
2
3

1
1
-2
9
8
7
-4
-2

4
3
4
3
2
1
-4
-3

5
3
4
2
-2
-1
9
3
-3

6
5
4
7
8
-1
-2
-3
5
4
3
-2
3
-4
3
2
