24

2
1
1
2
3
-1

1
2
1
-1
5
-1

2
5
1
-1
1
1
-2

1
1
2
-1
5
3
1

1
-1
3
3
1
2
-1

2
1
2
1
-1
1

3
2
1
2
3
-1

2
2
1
2
-2
3
1

1
2
3
1
-2
1
1

1
3
-1
2
-1

1
1
1
2
-1
-1

5
1
2
3
-2
1
-2

1
2
-1
2
-1
5
2
-2

1
-1
4
2
-2
3
1
3

4
5
3
8
-4
-1
2
6
4

3
2
-1
6
-2
3
5
-2
2
1
3

2
6
3
1
-4

5
6
8
-1
-1
-1

4
2
5
-1
7
1
-2
1
2
1
1
-2
-1

2
2
2
2
2
2
2
-1
-1
-1
-1
-1
-1
-1

1
2
3
4
5
-5
-4
-3
-2
-1

1
3
6
-3
3
2
5
-4
2

2
4
2
-3
-1
3
4
-2

4
3
6
-2
2
1
5
-5
1
2
-3
